{
  "apps" : [
    {
      "name"        : "proxy",
      "script"      : "./proxy.js",
      "watch"       : false,
      "min_uptime"  : 20000,
      "env": {
        "NODE_PATH": "./"
      },
      "error_file":"/dev/null",
      "out_file":"/dev/null"
    }
  ]
}